What the Package Does (One Line, Title Case) • censusaggregate
…
Next we can retrieve the vector using its code (v_CA16_408) and its children, for a given set of regions and at a given level. Here, we retrieve data for three Census subdivisions (CSD), then look at the data, which includes information like the highest parent vector, a description of the vector, the units its in, its direct parent (since children can be nested), the geographic identifier of the CSD, the population and number of households in that CSD, and the data value itself.

vector <- vector[["vector"]]

vector_with_breakdowns <- get_census_vectors_and_children(
  dataset,
  regions = list(CSD = c("3520005", "3521005", "3521010")),
  level = "CSD",
  vectors = vector
)

vector_with_breakdowns
#> # A tibble: 30 × 13
#>    highest_parent_vector vector     type  label  units parent_vector aggregation
#>    <chr>                 <chr>      <fct> <chr>  <fct> <chr>         <chr>      
#>  1 v_CA16_408            v_CA16_408 Total Occup… Numb… <NA>          Additive   
#>  2 v_CA16_408            v_CA16_408 Total Occup… Numb… <NA>          Additive   
#>  3 v_CA16_408            v_CA16_408 Total Occup… Numb… <NA>          Additive   
#>  4 v_CA16_408            v_CA16_409 Total Singl… Numb… v_CA16_408    Additive   
#>  5 v_CA16_408            v_CA16_409 Total Singl… Numb… v_CA16_408    Additive   
#>  6 v_CA16_408            v_CA16_409 Total Singl… Numb… v_CA16_408    Additive   
#>  7 v_CA16_408            v_CA16_410 Total Apart… Numb… v_CA16_408    Additive   
#>  8 v_CA16_408            v_CA16_410 Total Apart… Numb… v_CA16_408    Additive   
#>  9 v_CA16_408            v_CA16_410 Total Apart… Numb… v_CA16_408    Additive   
#> 10 v_CA16_408            v_CA16_411 Total Other… Numb… v_CA16_408    Additive   
#> # … with 20 more rows, and 6 more variables: aggregation_type <chr>,
#> #   details <chr>, geo_uid <chr>, population <dbl>, households <dbl>,
#> #   value <dbl>
…
And we can quickly look at the values themselves:

vector_with_breakdowns %>%
  select(vector, label, geo_uid, value)
#> # A tibble: 30 × 4
#>    vector     label                                               geo_uid  value
#>    <chr>      <chr>                                               <chr>    <dbl>
#>  1 v_CA16_408 Occupied private dwellings by structural type of d… 3520005 1.11e6
#>  2 v_CA16_408 Occupied private dwellings by structural type of d… 3521005 2.41e5
#>  3 v_CA16_408 Occupied private dwellings by structural type of d… 3521010 1.68e5
#>  4 v_CA16_409 Single-detached house                               3520005 2.70e5
#>  5 v_CA16_409 Single-detached house                               3521005 9.08e4
#>  6 v_CA16_409 Single-detached house                               3521010 8.76e4
#>  7 v_CA16_410 Apartment in a building that has five or more stor… 3520005 4.93e5
#>  8 v_CA16_410 Apartment in a building that has five or more stor… 3521005 6.31e4
#>  9 v_CA16_410 Apartment in a building that has five or more stor… 3521010 1.75e4
#> 10 v_CA16_411 Other attached dwelling                             3520005 3.50e5
#> # … with 20 more rows
…
