Derive aggregation type — derive_aggregation_type • censusaggregate
…
derive_aggregation_type(data)

    Arguments

    data
Data containing a field aggregation, e.g. from list_census_vectors

    Examples

library(cancensus)

list_census_vectors("CA16") %>%
  derive_aggregation_type()
#> # A tibble: 6,623 × 8
#>    vector     type   label                 units paren…¹ aggre…² aggre…³ details
#>    <chr>      <fct>  <chr>                 <fct> <chr>   <chr>   <chr>   <chr>  
#>  1 v_CA16_401 Total  Population, 2016      Numb… NA      Additi… Additi… CA 201…
#>  2 v_CA16_402 Total  Population, 2011      Numb… NA      Additi… Additi… CA 201…
#>  3 v_CA16_403 Total  Population percentag… Numb… NA      Averag… Average CA 201…
#>  4 v_CA16_404 Total  Total private dwelli… Numb… NA      Additi… Additi… CA 201…
#>  5 v_CA16_405 Total  Private dwellings oc… Numb… v_CA16… Additi… Additi… CA 201…
#>  6 v_CA16_406 Total  Population density p… Ratio NA      Averag… Average CA 201…
#>  7 v_CA16_407 Total  Land area in square … Numb… NA      Additi… Additi… CA 201…
#>  8 v_CA16_1   Total  Total - Age           Numb… NA      Additi… Additi… CA 201…
#>  9 v_CA16_2   Male   Total - Age           Numb… NA      Additi… Additi… CA 201…
#> 10 v_CA16_3   Female Total - Age           Numb… NA      Additi… Additi… CA 201…
#> # … with 6,613 more rows, and abbreviated variable names ¹​parent_vector,
#> #   ²​aggregation, ³​aggregation_type
…
